[
  {
    "email": "christian@something.com",
    "imageUrl": "avatar/christian.svg",
    "jobTitle": "UI/UX",
    "name": "Christian Lokers",
    "phone": "111-111111"
  },
  {
    "email": "sarah@something.com",
    "imageUrl": "avatar/sarah.svg",
    "jobTitle": "Developer",
    "name": "Sarah Guys",
    "phone": "222-222222"
  },
  {
    "email": "koen@something.com",
    "imageUrl": "avatar/koen.svg",
    "jobTitle": "Java",
    "name": "Koen Merels",
    "phone": "333-333333"
  },
  {
    "email": "tina@something.com",
    "imageUrl": "avatar/tina.svg",
    "jobTitle": "Project manager",
    "name": "Tina Speers",
    "phone": "444-444444"
  }
]